…
With that id you can use the `gutenberg_download()` function to

``` r
gutenberg_download(768)
#> Determining mirror for Project Gutenberg from http://www.gutenberg.org/robot/harvest
#> Using mirror http://aleph.gutenberg.org
#> # A tibble: 12,085 x 2
#>    gutenberg_id text                                                       
#>           <int> <chr>                                                      
#>  1          768 WUTHERING HEIGHTS                                          
#>  2          768 ""                                                         
#>  3          768 ""                                                         
#>  4          768 CHAPTER I                                                  
#>  5          768 ""                                                         
#>  6          768 ""                                                         
#>  7          768 1801.--I have just returned from a visit to my landlord--t…
#>  8          768 neighbour that I shall be troubled with.  This is certainl…
#>  9          768 country!  In all England, I do not believe that I could ha…
#> 10          768 situation so completely removed from the stir of society. …
#> # … with 12,075 more rows
```
…
